…
欺诈的表现形式多样。在民间信贷领域，通过虚假个人信息与社会关系从而骗取贷款的行为称为信贷欺诈；在企业广告渠道合作环节，通过科技手段制造虚假点击行为获得黑色营收称为点击欺诈；在线下销售场景中，为了个人利益汇报不实销售记录的行为称为交易欺诈。无论以何种形式和目的造成被欺诈人或企业的收益损失，都是备受抵制的。因而，反欺诈的策略意义与社会效应毋庸置疑。







## Data

对于销售交易欺诈行为，我们获得的基本数据涉及6千名销售人员销售4千多个商品的交易记录，包含每次交易的单笔销量与金额。数据结构如下：

{% highlight text %}
#> # A tibble: 6 x 5
#>       ID   Prod Quant   Val   Insp
#>   <fctr> <fctr> <int> <dbl> <fctr>
#> 1     v1     p1   182  1665   unkn
#> 2     v2     p1  3072  8780   unkn
#> 3     v3     p1 20393 76990   unkn
#> 4     v4     p1   112  1100   unkn
#> # ... with 2 more rows
…
